Przygotowanie i walidacja danych
…
## # A tibble: 30 × 13
##    Country     TLAXX AFPTLA  Year Forest_area   GDP  `%GDP`      EFV PRG   PLAS 
##    <chr>       <dbl>  <dbl> <dbl>       <dbl> <dbl>   <dbl>    <dbl> <fct> <fct>
##  1 Andorra        47   34.0  1990        16   NA    0       NA       <NA>  wyso…
##  2 Andorra        47   34.0  2000        16    1.43 0        0       bard… wyso…
##  3 Andorra        47   34.0  2010        16    3.45 0        0       bard… wyso…
##  4 Andorra        47   34.0  2015        16    2.79 0        0       bard… wyso…
##  5 Andorra        47   34.0  2020        16    2.88 0        0       bard… wyso…
##  6 Liechtenst…    16   40.6  1990         6.5 NA    0       NA       <NA>  bard…
##  7 Liechtenst…    16   41.9  2000         6.7  2.70 0.00936  2.53e-4 bard… bard…
##  8 Liechtenst…    16   41.9  2010         6.7  5.50 0.00924  5.09e-4 bard… bard…
##  9 Liechtenst…    16   41.9  2015         6.7  6.27 0.00194  1.22e-4 bard… bard…
## 10 Liechtenst…    16   41.9  2020         6.7  6.40 0.00147  9.42e-5 bard… bard…
## # ℹ 20 more rows
## # ℹ 3 more variables: outlier_linear <lgl>, outlier_color <chr>,
## #   outlier_log <lgl>
…
## # A tibble: 21 × 13
##    Country    TLAXX AFPTLA  Year Forest_area    GDP  `%GDP`      EFV PRG   PLAS 
##    <chr>      <dbl>  <dbl> <dbl>       <dbl>  <dbl>   <dbl>    <dbl> <fct> <fct>
##  1 Iceland    10025  0.170  1990        17.1   6.50 0        0       bard… bard…
##  2 Iceland    10025  0.298  2000        29.8   9.14 0        0       bard… bard…
##  3 Iceland    10025  0.446  2010        44.7  13.9  0        0       bard… bard…
##  4 Iceland    10025  0.480  2015        48.2  17.7  3.00e-4  5.30e-5 nisk… bard…
##  5 Iceland    10025  0.512  2020        51.4  22.0  1.09e-4  2.40e-5 nisk… bard…
##  6 Ireland     6889  6.70   1990       462.   48.2  5.63e-2  2.71e-2 nisk… bard…
##  7 Kazakhst… 269970  1.17   1990      3162.   NA    0       NA       <NA>  bard…
##  8 Kazakhst… 269970  1.17   2000      3157.   18.3  3.25e-2  5.95e-3 nisk… bard…
##  9 Kazakhst… 269970  1.14   2010      3082.  148.   4.08e-3  6.04e-3 wyso… bard…
## 10 Kazakhst… 269970  1.23   2015      3308.  184.   3.67e-3  6.77e-3 wyso… bard…
## # ℹ 11 more rows
## # ℹ 3 more variables: outlier_linear <lgl>, outlier_color <chr>,
## #   outlier_log <lgl>
…
## # A tibble: 30 × 13
##    Country     TLAXX AFPTLA  Year Forest_area   GDP  `%GDP`      EFV PRG   PLAS 
##    <chr>       <dbl>  <dbl> <dbl>       <dbl> <dbl>   <dbl>    <dbl> <fct> <fct>
##  1 Andorra        47   34.0  1990        16   NA    0       NA       <NA>  wyso…
##  2 Andorra        47   34.0  2000        16    1.43 0        0       bard… wyso…
##  3 Andorra        47   34.0  2010        16    3.45 0        0       bard… wyso…
##  4 Andorra        47   34.0  2015        16    2.79 0        0       bard… wyso…
##  5 Andorra        47   34.0  2020        16    2.88 0        0       bard… wyso…
##  6 Liechtenst…    16   40.6  1990         6.5 NA    0       NA       <NA>  bard…
##  7 Liechtenst…    16   41.9  2000         6.7  2.70 0.00936  2.53e-4 bard… bard…
##  8 Liechtenst…    16   41.9  2010         6.7  5.50 0.00924  5.09e-4 bard… bard…
##  9 Liechtenst…    16   41.9  2015         6.7  6.27 0.00194  1.22e-4 bard… bard…
## 10 Liechtenst…    16   41.9  2020         6.7  6.40 0.00147  9.42e-5 bard… bard…
## # ℹ 20 more rows
## # ℹ 3 more variables: outlier_linear <lgl>, outlier_color <chr>,
## #   outlier_log <lgl>
…
## # A tibble: 27 × 12
##    Country TLAXX AFPTLA  Year Forest_area   GDP `%GDP`   EFV PRG           PLAS 
##    <chr>   <dbl>  <dbl> <dbl>       <dbl> <dbl>  <dbl> <dbl> <fct>         <fct>
##  1 France  54756   26.4  1990       14436 1261. 0.0687 0.866 bardzo wysok… nisk…
##  2 France  54756   27.9  2000       15288 1362. 0.0531 0.723 bardzo wysok… nisk…
##  3 France  54756   30.0  2010       16419 2648. 0.0420 1.11  bardzo wysok… nisk…
##  4 France  54756   30.7  2015       16836 2443. 0.0358 0.874 bardzo wysok… nisk…
##  5 France  54756   31.5  2020       17253 2646. 0.0233 0.617 bardzo wysok… nisk…
##  6 Germany 34886   32.4  1990       11300 1604. 0.0889 1.43  bardzo wysok… nisk…
##  7 Germany 34886   32.5  2000       11354 1968. 0.0361 0.711 bardzo wysok… wyso…
##  8 Germany 34886   32.7  2010       11409 3470. 0.0437 1.52  bardzo wysok… wyso…
##  9 Germany 34886   32.7  2015       11419 3425. 0.0354 1.21  bardzo wysok… wyso…
## 10 Germany 34886   32.7  2020       11419 3938. 0.0279 1.10  bardzo wysok… wyso…
## # ℹ 17 more rows
## # ℹ 2 more variables: outlier_linear <lgl>, outlier_color <chr>
…
## # A tibble: 34 × 13
##    Country  TLAXX AFPTLA  Year Forest_area   GDP `%GDP`   EFV PRG          PLAS 
##    <chr>    <dbl>  <dbl> <dbl>       <dbl> <dbl>  <dbl> <dbl> <fct>        <fct>
##  1 Andorra    47  34.0    1990        16   NA         0    NA <NA>         wyso…
##  2 Andorra    47  34.0    2000        16    1.43      0     0 bardzo nisk… wyso…
##  3 Andorra    47  34.0    2010        16    3.45      0     0 bardzo nisk… wyso…
##  4 Andorra    47  34.0    2015        16    2.79      0     0 bardzo nisk… wyso…
##  5 Andorra    47  34.0    2020        16    2.88      0     0 bardzo nisk… wyso…
##  6 Belarus 20298. 38.3    1990      7780   NA         0    NA <NA>         wyso…
##  7 Czechia  7721  34.1    1990      2629.  NA         0    NA <NA>         wyso…
##  8 Georgia  6949  39.6    1990      2752.  NA         0    NA <NA>         wyso…
##  9 Iceland 10025   0.170  1990        17.1  6.50      0     0 bardzo nisk… bard…
## 10 Iceland 10025   0.298  2000        29.8  9.14      0     0 bardzo nisk… bard…
## # ℹ 24 more rows
## # ℹ 3 more variables: outlier_linear <lgl>, outlier_color <chr>,
## #   outlier_log <lgl>
…
## # A tibble: 25 × 12
##    Country  TLAXX AFPTLA  Year Forest_area    GDP `%GDP`   EFV PRG         PLAS 
##    <chr>    <dbl>  <dbl> <dbl>       <dbl>  <dbl>  <dbl> <dbl> <fct>       <fct>
##  1 Belarus 20298.   43.2  2020       8768.   61.3 1.15   0.704 niskie      bard…
##  2 Czechia  7721    34.7  2020       2677.  251.  0.355  0.891 wysokie     wyso…
##  3 Finland 30391    73.2  2010      22242   250.  0.322  0.805 wysokie     bard…
##  4 Finland 30391    73.7  2015      22409   233.  0.347  0.809 wysokie     bard…
##  5 France  54756    26.4  1990      14436  1261.  0.0687 0.866 bardzo wys… nisk…
##  6 France  54756    27.9  2000      15288  1362.  0.0531 0.723 bardzo wys… nisk…
##  7 France  54756    30.0  2010      16419  2648.  0.0420 1.11  bardzo wys… nisk…
##  8 France  54756    30.7  2015      16836  2443.  0.0358 0.874 bardzo wys… nisk…
##  9 Germany 34886    32.4  1990      11300  1604.  0.0889 1.43  bardzo wys… nisk…
## 10 Germany 34886    32.5  2000      11354  1968.  0.0361 0.711 bardzo wys… wyso…
## # ℹ 15 more rows
## # ℹ 2 more variables: outlier_linear <lgl>, outlier_color <chr>
…
## # A tibble: 28 × 13
##    Country      TLAXX AFPTLA  Year Forest_area   GDP  `%GDP`     EFV PRG   PLAS 
##    <chr>        <dbl>  <dbl> <dbl>       <dbl> <dbl>   <dbl>   <dbl> <fct> <fct>
##  1 Andorra         47 34.0    2000        16    1.43 0       0       bard… wyso…
##  2 Andorra         47 34.0    2010        16    3.45 0       0       bard… wyso…
##  3 Andorra         47 34.0    2015        16    2.79 0       0       bard… wyso…
##  4 Andorra         47 34.0    2020        16    2.88 0       0       bard… wyso…
##  5 Iceland      10025  0.170  1990        17.1  6.50 0       0       bard… bard…
##  6 Iceland      10025  0.298  2000        29.8  9.14 0       0       bard… bard…
##  7 Iceland      10025  0.446  2010        44.7 13.9  0       0       bard… bard…
##  8 Iceland      10025  0.480  2015        48.2 17.7  3.00e-4 5.30e-5 nisk… bard…
##  9 Iceland      10025  0.512  2020        51.4 22.0  1.09e-4 2.40e-5 nisk… bard…
## 10 Liechtenste…    16 41.9    2000         6.7  2.70 9.36e-3 2.53e-4 bard… bard…
## # ℹ 18 more rows
## # ℹ 3 more variables: outlier_linear <lgl>, outlier_color <chr>,
## #   outlier_log <lgl>
…
